\BOOKMARK [1][-]{section*.2}{Introduction}{}% 2
\BOOKMARK [1][-]{section*.3}{Game\040Theory}{}% 3
\BOOKMARK [1][-]{section*.4}{Nash\040Equilibrium}{}% 4
\BOOKMARK [1][-]{section*.5}{Potential\040Games}{}% 5
\BOOKMARK [1][-]{section*.6}{Prisoner's\040Dilemma}{}% 6
\BOOKMARK [1][-]{section*.7}{Cooperation\040Risk}{}% 7
\BOOKMARK [1][-]{section*.8}{Simulation}{}% 8
\BOOKMARK [1][-]{section*.9}{Punishment}{}% 9
\BOOKMARK [1][-]{section*.10}{Reward}{}% 10
\BOOKMARK [1][-]{section*.11}{Public\040Goods}{}% 11
\BOOKMARK [1][-]{section*.12}{Conclusion}{}% 12
\BOOKMARK [1][-]{section*.13}{Appendix:\040Random\040Numbers\040Generators\040Quality}{}% 13
\BOOKMARK [2][-]{section*.14}{}{section*.13}% 14
\BOOKMARK [2][-]{section*.15}{Kolmogorov-Smirnov\040Test}{section*.13}% 15
\BOOKMARK [2][-]{section*.16}{Covariance\040Distance}{section*.13}% 16
\BOOKMARK [2][-]{section*.17}{Correlation\040Length}{section*.13}% 17
\BOOKMARK [2][-]{section*.18}{Birthday\040and\040Gap\040Test}{section*.13}% 18
\BOOKMARK [2][-]{section*.19}{Monte\040Carlo\040Integration}{section*.13}% 19
\BOOKMARK [2][-]{section*.20}{Conclusion}{section*.13}% 20
\BOOKMARK [1][-]{section*.21}{Appendix:\040Random\040Numbers\040Generators\040Quality}{}% 21
\BOOKMARK [2][-]{section*.22}{}{section*.21}% 22
\BOOKMARK [2][-]{section*.23}{Kolmogorov-Smirnov\040Test}{section*.21}% 23
\BOOKMARK [2][-]{section*.24}{Covariance\040Distance}{section*.21}% 24
\BOOKMARK [2][-]{section*.25}{Correlation\040Length}{section*.21}% 25
\BOOKMARK [2][-]{section*.26}{Birthday\040and\040Gap\040Test}{section*.21}% 26
\BOOKMARK [2][-]{section*.27}{Monte\040Carlo\040Integration}{section*.21}% 27
\BOOKMARK [2][-]{section*.28}{Conclusion}{section*.21}% 28
\BOOKMARK [1][-]{section*.29}{Appendix:\040Metropolis}{}% 29
\BOOKMARK [2][-]{section*.30}{Importance\040of\040Sampling}{section*.29}% 30
\BOOKMARK [2][-]{section*.31}{Markov\040Process}{section*.29}% 31
\BOOKMARK [2][-]{section*.32}{Detailed\040Balance}{section*.29}% 32
\BOOKMARK [2][-]{section*.33}{Ergodicity}{section*.29}% 33
\BOOKMARK [2][-]{section*.34}{Metropolis\040Algorithm}{section*.29}% 34
\BOOKMARK [2][-]{section*.35}{Error\040Estimate}{section*.29}% 35
\BOOKMARK [1][-]{section*.36}{Abstaining}{}% 36
\BOOKMARK [1][-]{section*.37}{Phase\040Transition}{}% 37
\BOOKMARK [1][-]{section*.38}{Open\040MP}{}% 38
\BOOKMARK [1][-]{section*.39}{Other\040Games}{}% 39
\BOOKMARK [1][-]{section*.40}{References}{}% 40
