\relax 
\providecommand\hyper@newdestlabel[2]{}
\providecommand\HyperFirstAtBeginDocument{\AtBeginDocument}
\HyperFirstAtBeginDocument{\ifx\hyper@anchor\@undefined
\global\let\oldcontentsline\contentsline
\gdef\contentsline#1#2#3#4{\oldcontentsline{#1}{#2}{#3}}
\global\let\oldnewlabel\newlabel
\gdef\newlabel#1#2{\newlabelxx{#1}#2}
\gdef\newlabelxx#1#2#3#4#5#6{\oldnewlabel{#1}{{#2}{#3}}}
\AtEndDocument{\ifx\hyper@anchor\@undefined
\let\contentsline\oldcontentsline
\let\newlabel\oldnewlabel
\fi}
\fi}
\global\let\hyper@last\relax 
\gdef\HyperFirstAtBeginDocument#1{#1}
\providecommand\HyField@AuxAddToFields[1]{}
\providecommand\HyField@AuxAddToCoFields[2]{}
\@writefile{toc}{\contentsline {section}{\numberline {}Introduction}{1}{section*.2}}
\newlabel{sec:intro}{{}{1}{}{section*.2}{}}
\@writefile{toc}{\contentsline {section}{\numberline {}Game Theory}{1}{section*.3}}
\newlabel{sec:game_theory}{{}{1}{}{section*.3}{}}
\citation{nashPNAS1950}
\citation{axelrodScience1981}
\citation{szaboPhysRep2007,hauertPNAS2009,szaboPhysRevE2015,szaboPhysRevE2014}
\citation{blume1993,MONDERER1996124,szaboPhysRep2016}
\citation{szaboPhysRep2016}
\@writefile{toc}{\contentsline {section}{\numberline {}Nash Equilibrium}{2}{section*.4}}
\newlabel{sec:NashEq}{{}{2}{}{section*.4}{}}
\@writefile{toc}{\contentsline {section}{\numberline {}Potential Games}{3}{section*.5}}
\newlabel{sec:potential_games}{{}{3}{}{section*.5}{}}
\@writefile{toc}{\contentsline {section}{\numberline {}Prisoner's Dilemma}{3}{section*.6}}
\newlabel{sec:pdg}{{}{3}{}{section*.6}{}}
\newlabel{pd:cond1}{{1}{3}{}{equation.0.1}{}}
\newlabel{pd:cond2}{{2}{3}{}{equation.0.2}{}}
\@writefile{toc}{\contentsline {section}{\numberline {}Cooperation Risk}{3}{section*.7}}
\newlabel{sec:coop_risk}{{}{3}{}{section*.7}{}}
\@writefile{toc}{\contentsline {section}{\numberline {}Simulation}{4}{section*.8}}
\newlabel{sec:simulation}{{}{4}{}{section*.8}{}}
\@writefile{toc}{\contentsline {section}{\numberline {}Punishment}{4}{section*.9}}
\newlabel{sec:punishment}{{}{4}{}{section*.9}{}}
\@writefile{toc}{\contentsline {section}{\numberline {}Reward}{4}{section*.10}}
\newlabel{sec:reward}{{}{4}{}{section*.10}{}}
\@writefile{toc}{\contentsline {section}{\numberline {}Public Goods}{4}{section*.11}}
\newlabel{sec:public_goods}{{}{4}{}{section*.11}{}}
\@writefile{toc}{\contentsline {section}{\numberline {}Conclusion}{5}{section*.12}}
\newlabel{sec:conclusion}{{}{5}{}{section*.12}{}}
\@writefile{toc}{\contentsline {section}{\numberline {}Appendix: Random Numbers Generators Quality}{5}{section*.13}}
\newlabel{sec:apendice_rng}{{}{5}{}{section*.13}{}}
\@writefile{toc}{\contentsline {subsection}{\numberline {}Chi-Squared test ( \relax \fontsize  {10.95}{14.5pt}\selectfont  \abovedisplayskip 8\p@ plus3\p@ minus6\p@ \belowdisplayskip \abovedisplayskip \abovedisplayshortskip \z@ plus3\p@ \belowdisplayshortskip 6.5\p@ plus3.5\p@ minus3\p@ \def \leftmargin \leftmargini \parsep 5\p@ plus2.5\p@ minus\p@ \topsep 10\p@ plus4\p@ minus6\p@ \itemsep 5\p@ plus2.5\p@ minus\p@ {\leftmargin \leftmargini \topsep 9\p@ plus3\p@ minus5\p@ \parsep 4.5\p@ plus2\p@ minus\p@ \itemsep \parsep }{$\chi ^{2}$} )}{5}{section*.14}}
\newlabel{sub:chisquared}{{}{5}{}{section*.14}{}}
\newlabel{eq:chisquare}{{3}{5}{}{equation.0.3}{}}
\@writefile{toc}{\contentsline {subsection}{\numberline {}Kolmogorov-Smirnov Test}{6}{section*.15}}
\newlabel{eq:theoreticalcumulative}{{4}{6}{}{equation.0.4}{}}
\newlabel{eq:maxkp}{{5}{6}{}{equation.0.5}{}}
\newlabel{eq:minkm}{{6}{6}{}{equation.0.6}{}}
\@writefile{toc}{\contentsline {subsection}{\numberline {}Covariance Distance}{6}{section*.16}}
\@writefile{toc}{\contentsline {subsection}{\numberline {}Correlation Length}{6}{section*.17}}
\@writefile{toc}{\contentsline {subsection}{\numberline {}Birthday and Gap Test}{6}{section*.18}}
\@writefile{toc}{\contentsline {subsection}{\numberline {}Monte Carlo Integration}{6}{section*.19}}
\@writefile{toc}{\contentsline {subsection}{\numberline {}Conclusion}{7}{section*.20}}
\@writefile{toc}{\contentsline {section}{\numberline {}Appendix: Random Numbers Generators Quality}{7}{section*.21}}
\newlabel{sec:prng}{{}{7}{}{section*.21}{}}
\@writefile{toc}{\contentsline {subsection}{\numberline {}Chi-Squared test ( \relax \fontsize  {10.95}{14.5pt}\selectfont  \abovedisplayskip 8\p@ plus3\p@ minus6\p@ \belowdisplayskip \abovedisplayskip \abovedisplayshortskip \z@ plus3\p@ \belowdisplayshortskip 6.5\p@ plus3.5\p@ minus3\p@ \def \leftmargin \leftmargini \parsep 5\p@ plus2.5\p@ minus\p@ \topsep 10\p@ plus4\p@ minus6\p@ \itemsep 5\p@ plus2.5\p@ minus\p@ {\leftmargin \leftmargini \topsep 9\p@ plus3\p@ minus5\p@ \parsep 4.5\p@ plus2\p@ minus\p@ \itemsep \parsep }{$\chi ^{2}$} )}{8}{section*.22}}
\newlabel{sub:chisquared}{{}{8}{}{section*.22}{}}
\newlabel{eq:chisquare}{{7}{8}{}{equation.0.7}{}}
\@writefile{toc}{\contentsline {subsection}{\numberline {}Kolmogorov-Smirnov Test}{8}{section*.23}}
\newlabel{eq:theoreticalcumulative}{{8}{9}{}{equation.0.8}{}}
\newlabel{eq:maxkp}{{9}{9}{}{equation.0.9}{}}
\newlabel{eq:minkm}{{10}{9}{}{equation.0.10}{}}
\@writefile{toc}{\contentsline {subsection}{\numberline {}Covariance Distance}{9}{section*.24}}
\@writefile{toc}{\contentsline {subsection}{\numberline {}Correlation Length}{9}{section*.25}}
\@writefile{toc}{\contentsline {subsection}{\numberline {}Birthday and Gap Test}{9}{section*.26}}
\@writefile{toc}{\contentsline {subsection}{\numberline {}Monte Carlo Integration}{9}{section*.27}}
\@writefile{toc}{\contentsline {subsection}{\numberline {}Conclusion}{10}{section*.28}}
\@writefile{toc}{\contentsline {section}{\numberline {}Appendix: Metropolis}{10}{section*.29}}
\newlabel{sec:Monte Carlo Simulation}{{}{10}{}{section*.29}{}}
\@writefile{toc}{\contentsline {subsection}{\numberline {}Importance of Sampling}{10}{section*.30}}
\@writefile{toc}{\contentsline {subsection}{\numberline {}Markov Process}{11}{section*.31}}
\@writefile{toc}{\contentsline {subsection}{\numberline {}Detailed Balance}{11}{section*.32}}
\newlabel{eq:db1}{{11}{11}{}{equation.0.11}{}}
\newlabel{eq:db2}{{12}{11}{}{equation.0.12}{}}
\bibcite{nashPNAS1950}{{1}{}{{}}{{}}}
\bibcite{axelrodScience1981}{{2}{}{{}}{{}}}
\bibcite{szaboPhysRep2007}{{3}{}{{}}{{}}}
\bibcite{szaboPhysRevE2015}{{4}{}{{}}{{}}}
\bibcite{szaboPhysRevE2014}{{5}{}{{}}{{}}}
\bibcite{blume1993}{{6}{}{{}}{{}}}
\bibcite{MONDERER1996124}{{7}{}{{}}{{}}}
\bibcite{szaboPhysRep2016}{{8}{}{{}}{{}}}
\bibcite{percSciRep2013}{{9}{}{{}}{{}}}
\bibcite{nakamuraSciRep2017}{{10}{}{{}}{{}}}
\@writefile{toc}{\contentsline {subsection}{\numberline {}Ergodicity}{12}{section*.33}}
\@writefile{toc}{\contentsline {subsection}{\numberline {}Metropolis Algorithm}{12}{section*.34}}
\@writefile{toc}{\contentsline {subsection}{\numberline {}Error Estimate}{12}{section*.35}}
\@writefile{toc}{\contentsline {section}{\numberline {}Abstaining}{12}{section*.36}}
\newlabel{sec:Abstaining}{{}{12}{}{section*.36}{}}
\@writefile{toc}{\contentsline {section}{\numberline {}Phase Transition}{12}{section*.37}}
\newlabel{sec:phase_transition}{{}{12}{}{section*.37}{}}
\@writefile{toc}{\contentsline {section}{\numberline {}Open MP}{12}{section*.38}}
\newlabel{sec:open_mp}{{}{12}{}{section*.38}{}}
\@writefile{toc}{\contentsline {section}{\numberline {}Other Games}{12}{section*.39}}
\newlabel{sec:other_games}{{}{12}{}{section*.39}{}}
\@writefile{toc}{\contentsline {section}{\numberline {}References}{12}{section*.40}}
\bibcite{pereiraJTB2010}{{11}{}{{}}{{}}}
\bibcite{amit2005}{{12}{}{{}}{{}}}
\bibcite{nowakPNAS2001}{{13}{}{{}}{{}}}
\bibcite{nowakNature2005}{{14}{}{{}}{{}}}
\bibcite{nowakScience2009}{{15}{}{{}}{{}}}
\bibcite{abramowitz1964}{{16}{}{{}}{{}}}
\bibcite{nashPNAS1950}{{17}{}{{}}{{}}}
\bibcite{fishman1995}{{18}{}{{}}{{}}}
\bibcite{KnuthII}{{19}{}{{}}{{}}}
\bibcite{GSL}{{20}{}{{}}{{}}}
\bibcite{GLIBC}{{21}{}{{}}{{}}}
\bibcite{Katzgraber2010}{{22}{}{{}}{{}}}
\bibcite{Ferrenberg1992}{{23}{}{{}}{{}}}
\bibcite{HPress1992}{{24}{}{{}}{{}}}
\bibcite{Luscher1993}{{25}{}{{}}{{}}}
\bibcite{Marsaglia1991}{{26}{}{{}}{{}}}
\bibcite{Rukhin2010}{{27}{}{{}}{{}}}
\bibcite{Soto1999}{{28}{}{{}}{{}}}
\bibdata{mainNotes}
\bibstyle{apsrev4-1}
\citation{REVTEX41Control}
\citation{apsrev41Control}
\providecommand\NAT@force@numbers{}\NAT@force@numbers
\newlabel{LastBibItem}{{28}{13}{}{section*.40}{}}
\newlabel{LastPage}{{}{13}{}{}{}}
